{
  "project_info": {
    "project_number": "75084943570",
    "firebase_url": "https://login-sdt.firebaseio.com",
    "project_id": "login-sdt",
    "storage_bucket": "login-sdt.appspot.com"
  },
  "client": [
    {
      "client_info": {
        "mobilesdk_app_id": "1:75084943570:android:00ad33e383d8823befdd0b",
        "android_client_info": {
          "package_name": "com.quanglan.loginsdt"
        }
      },
      "oauth_client": [
        {
          "client_id": "75084943570-4io9ob1dkl9o0ki4r9797q4naiftbsqf.apps.googleusercontent.com",
          "client_type": 1,
          "android_info": {
            "package_name": "com.quanglan.loginsdt",
            "certificate_hash": "a36feacd53ed00cf1f097e8e47430d5b468fece8"
          }
        },
        {
          "client_id": "75084943570-0b89f1a3tiqk6cnet87ghl1eumgo6o1o.apps.googleusercontent.com",
          "client_type": 3
        }
      ],
      "api_key": [
        {
          "current_key": "AIzaSyCS5Ro8unfdv6KttJgwq7KT5BvqOrYx28M"
        }
      ],
      "services": {
        "appinvite_service": {
          "other_platform_oauth_client": [
            {
              "client_id": "75084943570-0b89f1a3tiqk6cnet87ghl1eumgo6o1o.apps.googleusercontent.com",
              "client_type": 3
            }
          ]
        }
      }
    }
  ],
  "configuration_version": "1"
}